<svg version="1.1" id="select-arrow" xmlns="http://www.w3.org/2000/svg" xmlns:xlink="http://www.w3.org/1999/xlink" x="0px" y="0px"
	 viewBox="0 0 12.9404516 7.4106779" style="enable-background:new 0 0 12.9404516 7.4106779;" xml:space="preserve">
<style type="text/css">
	.select-arrow0{fill:none;stroke:#444444;stroke-width:1.33;stroke-miterlimit:50;}
</style>
<g>
	<g>
		<path class="select-arrow0" d="M12.4702263,0.470226L12.4702263,0.470226l-6.0000005,6l0,0l-6-6l0,0"/>
	</g>
</g>
</svg>